<svg width="164" height="108" viewBox="0 0 164 108" fill="none" xmlns="http://www.w3.org/2000/svg">
<ellipse cx="159.32" cy="4.15387" rx="4.15387" ry="4.61545" transform="rotate(90 159.32 4.15387)" fill="#1DC0AD" fill-opacity="0.25"/>
<ellipse cx="137.166" cy="4.15387" rx="4.15387" ry="4.61545" transform="rotate(90 137.166 4.15387)" fill="#1DC0AD" fill-opacity="0.25"/>
<ellipse cx="159.32" cy="24.0931" rx="4.15387" ry="4.61545" transform="rotate(90 159.32 24.0931)" fill="#1DC0AD" fill-opacity="0.25"/>
<ellipse cx="137.166" cy="24.0931" rx="4.15387" ry="4.61545" transform="rotate(90 137.166 24.0931)" fill="#1DC0AD" fill-opacity="0.25"/>
<ellipse cx="159.32" cy="44.0303" rx="4.15387" ry="4.61545" transform="rotate(90 159.32 44.0303)" fill="#1DC0AD" fill-opacity="0.25"/>
<ellipse cx="137.166" cy="44.0303" rx="4.15387" ry="4.61545" transform="rotate(90 137.166 44.0303)" fill="#1DC0AD" fill-opacity="0.25"/>
<ellipse cx="159.32" cy="63.9695" rx="4.15387" ry="4.61545" transform="rotate(90 159.32 63.9695)" fill="#1DC0AD" fill-opacity="0.25"/>
<ellipse cx="137.166" cy="63.9695" rx="4.15387" ry="4.61545" transform="rotate(90 137.166 63.9695)" fill="#1DC0AD" fill-opacity="0.25"/>
<ellipse cx="115.012" cy="4.15387" rx="4.15387" ry="4.61545" transform="rotate(90 115.012 4.15387)" fill="#1DC0AD" fill-opacity="0.25"/>
<ellipse cx="92.8572" cy="4.15387" rx="4.15387" ry="4.61545" transform="rotate(90 92.8572 4.15387)" fill="#1DC0AD" fill-opacity="0.25"/>
<ellipse cx="115.012" cy="24.0931" rx="4.15387" ry="4.61545" transform="rotate(90 115.012 24.0931)" fill="#1DC0AD" fill-opacity="0.25"/>
<ellipse cx="92.8572" cy="24.0931" rx="4.15387" ry="4.61545" transform="rotate(90 92.8572 24.0931)" fill="#1DC0AD" fill-opacity="0.25"/>
<ellipse cx="115.012" cy="44.0303" rx="4.15387" ry="4.61545" transform="rotate(90 115.012 44.0303)" fill="#1DC0AD" fill-opacity="0.25"/>
<ellipse cx="92.8572" cy="44.0303" rx="4.15387" ry="4.61545" transform="rotate(90 92.8572 44.0303)" fill="#1DC0AD" fill-opacity="0.25"/>
<ellipse cx="115.012" cy="63.9695" rx="4.15387" ry="4.61545" transform="rotate(90 115.012 63.9695)" fill="#1DC0AD" fill-opacity="0.25"/>
<ellipse cx="92.8572" cy="63.9695" rx="4.15387" ry="4.61545" transform="rotate(90 92.8572 63.9695)" fill="#1DC0AD" fill-opacity="0.25"/>
<ellipse cx="115.012" cy="83.909" rx="4.15387" ry="4.61545" transform="rotate(90 115.012 83.909)" fill="#1DC0AD" fill-opacity="0.25"/>
<ellipse cx="92.8572" cy="83.909" rx="4.15387" ry="4.61545" transform="rotate(90 92.8572 83.909)" fill="#1DC0AD" fill-opacity="0.25"/>
<ellipse cx="159.32" cy="83.909" rx="4.15387" ry="4.61545" transform="rotate(90 159.32 83.909)" fill="#1DC0AD" fill-opacity="0.25"/>
<ellipse cx="137.166" cy="83.909" rx="4.15387" ry="4.61545" transform="rotate(90 137.166 83.909)" fill="#1DC0AD" fill-opacity="0.25"/>
<ellipse cx="159.32" cy="103.846" rx="4.15387" ry="4.61545" transform="rotate(90 159.32 103.846)" fill="#1DC0AD" fill-opacity="0.25"/>
<ellipse cx="137.166" cy="103.846" rx="4.15387" ry="4.61545" transform="rotate(90 137.166 103.846)" fill="#1DC0AD" fill-opacity="0.25"/>
<ellipse cx="115.012" cy="103.846" rx="4.15387" ry="4.61545" transform="rotate(90 115.012 103.846)" fill="#1DC0AD" fill-opacity="0.25"/>
<ellipse cx="92.8572" cy="103.846" rx="4.15387" ry="4.61545" transform="rotate(90 92.8572 103.846)" fill="#1DC0AD" fill-opacity="0.25"/>
<ellipse cx="70.7029" cy="4.15411" rx="4.15387" ry="4.61545" transform="rotate(90 70.7029 4.15411)" fill="#1DC0AD" fill-opacity="0.25"/>
<ellipse cx="48.5486" cy="4.15387" rx="4.15387" ry="4.61545" transform="rotate(90 48.5486 4.15387)" fill="#1DC0AD" fill-opacity="0.25"/>
<ellipse cx="70.7029" cy="24.0931" rx="4.15387" ry="4.61545" transform="rotate(90 70.7029 24.0931)" fill="#1DC0AD" fill-opacity="0.25"/>
<ellipse cx="48.5486" cy="24.0931" rx="4.15387" ry="4.61545" transform="rotate(90 48.5486 24.0931)" fill="#1DC0AD" fill-opacity="0.25"/>
<ellipse cx="70.7029" cy="44.0303" rx="4.15387" ry="4.61545" transform="rotate(90 70.7029 44.0303)" fill="#1DC0AD" fill-opacity="0.25"/>
<ellipse cx="48.5486" cy="44.0303" rx="4.15387" ry="4.61545" transform="rotate(90 48.5486 44.0303)" fill="#1DC0AD" fill-opacity="0.25"/>
<ellipse cx="70.7029" cy="63.9698" rx="4.15387" ry="4.61545" transform="rotate(90 70.7029 63.9698)" fill="#1DC0AD" fill-opacity="0.25"/>
<ellipse cx="48.5486" cy="63.9695" rx="4.15387" ry="4.61545" transform="rotate(90 48.5486 63.9695)" fill="#1DC0AD" fill-opacity="0.25"/>
<ellipse cx="70.7029" cy="83.909" rx="4.15387" ry="4.61545" transform="rotate(90 70.7029 83.909)" fill="#1DC0AD" fill-opacity="0.25"/>
<ellipse cx="48.5486" cy="83.909" rx="4.15387" ry="4.61545" transform="rotate(90 48.5486 83.909)" fill="#1DC0AD" fill-opacity="0.25"/>
<ellipse cx="70.7029" cy="103.846" rx="4.15387" ry="4.61545" transform="rotate(90 70.7029 103.846)" fill="#1DC0AD" fill-opacity="0.25"/>
<ellipse cx="48.5486" cy="103.846" rx="4.15387" ry="4.61545" transform="rotate(90 48.5486 103.846)" fill="#1DC0AD" fill-opacity="0.25"/>
<ellipse cx="26.7693" cy="4.15387" rx="4.15387" ry="4.61545" transform="rotate(90 26.7693 4.15387)" fill="#1DC0AD" fill-opacity="0.25"/>
<ellipse cx="4.61502" cy="4.15387" rx="4.15387" ry="4.61545" transform="rotate(90 4.61502 4.15387)" fill="#1DC0AD" fill-opacity="0.25"/>
<ellipse cx="26.7693" cy="24.0931" rx="4.15387" ry="4.61545" transform="rotate(90 26.7693 24.0931)" fill="#1DC0AD" fill-opacity="0.25"/>
<ellipse cx="4.61502" cy="24.0931" rx="4.15387" ry="4.61545" transform="rotate(90 4.61502 24.0931)" fill="#1DC0AD" fill-opacity="0.25"/>
<ellipse cx="26.7693" cy="44.0303" rx="4.15387" ry="4.61545" transform="rotate(90 26.7693 44.0303)" fill="#1DC0AD" fill-opacity="0.25"/>
<ellipse cx="4.61502" cy="44.0303" rx="4.15387" ry="4.61545" transform="rotate(90 4.61502 44.0303)" fill="#1DC0AD" fill-opacity="0.25"/>
<ellipse cx="26.7693" cy="63.9698" rx="4.15387" ry="4.61545" transform="rotate(90 26.7693 63.9698)" fill="#1DC0AD" fill-opacity="0.25"/>
<ellipse cx="4.61502" cy="63.9695" rx="4.15387" ry="4.61545" transform="rotate(90 4.61502 63.9695)" fill="#1DC0AD" fill-opacity="0.25"/>
<ellipse cx="26.7693" cy="83.909" rx="4.15387" ry="4.61545" transform="rotate(90 26.7693 83.909)" fill="#1DC0AD" fill-opacity="0.25"/>
<ellipse cx="4.61502" cy="83.909" rx="4.15387" ry="4.61545" transform="rotate(90 4.61502 83.909)" fill="#1DC0AD" fill-opacity="0.25"/>
<ellipse cx="26.7693" cy="103.846" rx="4.15387" ry="4.61545" transform="rotate(90 26.7693 103.846)" fill="#1DC0AD" fill-opacity="0.25"/>
<ellipse cx="4.61502" cy="103.846" rx="4.15387" ry="4.61545" transform="rotate(90 4.61502 103.846)" fill="#1DC0AD" fill-opacity="0.25"/>
</svg>
